value,label
1,Belgium
2,Netherlands
3,Ireland
4,Luxembourg
5,France
6,United Kingdom
7,Germany
8,Spain
9,Portugal
10,Malta
11,Bermuda
12,Austria
13,Bulgaria
14,Croatia
15,Cyprus
16,Czech Republic
17,Denmark
18,Estonia
19,Finland
20,Greece
21,Hungary
22,Italy
23,Latvia
24,Lithuania
25,Poland
26,Romania
27,Slovakia
28,Slovenia
29,Sweden
30,United States