Austria,0.3
Belgium,0.3
Bulgaria,0.3
Croatia,0.3
Cyprus,0.3
Czech Republic,0.3
Denmark,0.3
Estonia,0.3
Finland,0.3
France,0.3
Germany,0.3
Greece,0.3
Hungary,0.3
Ireland,0.3
Italy,0.3
Latvia,0.3
Lithuania,0.3
Luxembourg,0.3
Malta,0.3
Netherlands,0.3
Poland,0.3
Portugal,0.3
Romania,0.3
Slovakia,0.3
Slovenia,0.3
Spain,0.3
Sweden,0.3
United Kingdom,0.3