Austria,0,0
Belgium,1,0.2,
Bulgaria,1,0.33333,
Croatia,1,0.25,
Cyprus,1,0,
Czech Republic,1,0.25,
Denmark,1,0.25,
Estonia,1,0,
Finland,0.25,0,
France,0.75,0,
Germany,0.3,0,
Greece,0.5,0,
Hungary,1,0.3333,
Ireland,1,0,
Italy,0.3,0,
Latvia,1,0.25,
Lithuania,1,0.25,
Luxembourg,1,0.17647,
Malta,1,0,
Netherlands,1,0,
Poland,1,1,
Portugal,0.3,0,
Romania,1,0.3333,
Slovakia,0.25,0,
Slovenia,1,0.25,
Spain,0.3,0,
Sweden,1,0,
United Kingdom,1,0,