Belgium;0.3399;1;0.05;0.2;1
Netherlands;0.25;1;0;0.2;1
Ireland;0.125;2;0;2;1
Luxembourg;0.2922;1;0;0.2;1
France;0.3333;1;0.05;0.43566657;1
United Kingdom;0.2;1;0;0.5;1
Germany;0.1583;1;0.05;1;1
Spain;0.28;1;0;0.4;1
Portugal;0.21;1;0;0.5;1
Malta;0.35;1;0;1;1
Bermuda;0;0;0;0;0
Austria;0.25;1;0;1;1
Bulgaria;0.1;1;0;1;1
Croatia;0.2;1;0;1;1
Cyprus;0.125;1;0;0.2;1
Czech Republic;0.19;1;0;1;1
Denmark;0.235;1;0;1;1
Estonia;0.2;1;1;1;1
Finland;0.2;1;0;1;1
Greece;0.26;1;0;1;1
Hungary;0.19;1;0;1;1
Italy;0.3221;1;0.05;0.7;1
Latvia;0.15;1;0;1;1
Lithuania;0.15;1;0;1;1
Poland;0.19;1;0;1;1
Romania;0.16;1;0;1;1
Slovakia;0.22;1;0;1;1
Slovenia;0.17;1;0.05;1;1
Sweden;0.22;1;0;1;1
United States;0.35;1;1;1;0
China;0.25;1;1;1;0
Canada;0.38;1;1;1;0
Brazil;0.34;1;1;1;0
Hong Kong;0.165;0;0;0;0
Japan;0.3462;1;0.05;1;0
Switzerland;0.085;0;0;0;0
Singapore;0.17;1;0;1;0
Liechtenstein;0.125;0;0;0;0
Australia;0.3;1;0;1;0
South Africa;0.28;1;0;1;0
Thailand;0.2;1;0;1;0
India;0.3;1;0.5;1;0