;Belgium;Netherlands;Ireland;Luxembourg;France;United Kingdom;Germany;Spain;Portugal;Malta;Austria;Bulgaria;Croatia;Cyprus;Czech Republic;Denmark;Estonia;Finland;Greece;Hungary;Italy;Latvia;Lithuania;Poland;Romania;Slovakia;Slovenia;Sweden;United States;Bermuda;China;Canada;Brazil;Hong Kong;Japan;Switzerland;Singapore;Liechtenstein;Australia;South Africa;Thailand;India
Belgium;0;0;0;0;0;0;0;0;0;0;0;0;0;0;0;0;0;0;0;0;0;0;0;0;0;0;0;0;0;0.25;0.1;0.1;0.1;0;0.1;0;0.05;0.25;0.1;0;0.1;0.1
Netherlands;0;0;0;0;0;0;0;0;0;0;0;0;0;0;0;0;0;0;0;0;0;0;0;0;0;0;0;0;0;0;0;0;0;0;0;0;0;0;0;0;0;0
Ireland;0;0;0;0;0;0;0;0;0;0;0;0;0;0;0;0;0;0;0;0;0;0;0;0;0;0;0;0;0;0.2;0.1;0;0.2;0;0.1;0.2;0.05;0.2;0.1;0;0.2;0.2
Luxembourg;0;0;0;0;0;0;0;0;0;0;0;0;0;0;0;0;0;0;0;0;0;0;0;0;0;0;0;0;0;0;0;0;0;0;0;0;0;0;0;0;0;0
France;0;0;0;0;0;0;0;0;0;0;0;0;0;0;0;0;0;0;0;0;0;0;0;0;0;0;0;0;0;0.75;0;0;0;0;0;0;0;0;0;0;0;0
United Kingdom;0;0;0;0;0;0;0;0;0;0;0;0;0;0;0;0;0;0;0;0;0;0;0;0;0;0;0;0;0;0.2;0.1;0.1;0.2;0;0;0;0;0;0;0;0;0.1
Germany;0;0;0;0;0;0;0;0;0;0;0;0;0;0;0;0;0;0;0;0;0;0;0;0;0;0;0;0;0;0.2638;0.1;0;0.25;0.25;0.1;0;0.08;0;0.1;0.1;0;0.1
Spain;0;0;0;0;0;0;0;0;0;0;0;0;0;0;0;0;0;0;0;0;0;0;0;0;0;0;0;0;0;0.2;0.1;0.15;0.1;0;0.1;0;0;0.2;0.1;0;0;0.15
Portugal;0;0;0;0;0;0;0;0;0;0;0;0;0;0;0;0;0;0;0;0;0;0;0;0;0;0;0;0;0.1;0.35;0.1;0;0.15;0.1;0.05;0.1;0;0.25;0.25;0.1;0.25;0
Malta;0;0;0;0;0;0;0;0;0;0;0;0;0;0;0;0;0;0;0;0;0;0;0;0;0;0;0;0;0;0;0;0;0;0;0;0;0;0;0;0;0;0
Austria;0;0;0;0;0;0;0;0;0;0;0;0;0;0;0;0;0;0;0;0;0;0;0;0;0;0;0;0;0;0;0;0;0;0;0;0;0;0;0;0;0;0
Bulgaria;0;0;0;0;0;0;0;0;0;0;0;0;0;0;0;0;0;0;0;0;0;0;0;0;0;0;0;0;0.05;0.1;0.1;0;0.1;0.1;0.1;0;0.05;0.1;0.1;0.05;0.1;0.1
Croatia;0;0;0;0;0;0;0;0;0;0;0;0;0;0;0;0;0;0;0;0;0;0;0;0;0;0;0;0;0.15;0.2;0.1;0.1;0.15;0.15;0.15;0.05;0.15;0.15;0.15;0;0.15;0.1
Cyprus;0;0;0;0;0;0;0;0;0;0;0;0;0;0;0;0;0;0;0;0;0;0;0;0;0;0;0;0;0;0;0;0;0;0;0;0;0;0;0;0;0;0
Czech Republic;0;0;0;0;0;0;0;0;0;0;0;0;0;0;0;0;0;0;0;0;0;0;0;0;0;0;0;0;0;0.35;0.075;0.1;0.1;0;0.1;0;0;0.15;0.1;0;0.1;0.1
Denmark;0;0;0;0;0;0;0;0;0;0;0;0;0;0;0;0;0;0;0;0;0;0;0;0;0;0;0;0;0;0.25;0.1;0;0.15;0.25;0.1;0;0.1;0.25;0.1;0;0.1;0.1
Estonia;0;0;0;0;0;0;0;0;0;0;0;0;0;0;0;0;0;0;0;0;0;0;0;0;0;0;0;0;0.1;0;0;0;0;0;0;0;0;0;0;0;0;0
Finland;0;0;0;0;0;0;0;0;0;0;0;0;0;0;0;0;0;0;0;0;0;0;0;0;0;0;0;0;0;0.2;0.1;0;0.2;0.2;0.1;0;0.05;0.2;0;0;0.1;0.1
Greece;0;0;0;0;0;0;0;0;0;0;0;0;0;0;0;0;0;0;0;0;0;0;0;0;0;0;0;0;0;0.15;0.1;0.1;0.15;0.15;0.15;0.07;0.15;0.15;0.15;0;0.15;0.15
Hungary;0;0;0;0;0;0;0;0;0;0;0;0;0;0;0;0;0;0;0;0;0;0;0;0;0;0;0;0;0;0;0;0;0;0;0;0;0;0;0;0;0;0
Italy;0;0;0;0;0;0;0;0;0;0;0;0;0;0;0;0;0;0;0;0;0;0;0;0;0;0;0;0;0.1;0.26;0;0.1;0.15;0.26;0.1;0.125;0.125;0.26;0.1;0;0;0
Latvia;0;0;0;0;0;0;0;0;0;0;0;0;0;0;0;0;0;0;0;0;0;0;0;0;0;0;0;0;0.1;0.1;0;0;0;0;0;0;0;0;0;0;0;0
Lithuania;0;0;0;0;0;0;0;0;0;0;0;0;0;0;0;0;0;0;0;0;0;0;0;0;0;0;0;0;0.1;0.1;0.1;0.1;0.1;0.1;0.1;0.1;0.1;0.1;0.1;0.1;0.1;0.1
Poland;0;0;0;0;0;0;0;0;0;0;0;0;0;0;0;0;0;0;0;0;0;0;0;0;0;0;0;0;0;0.2;0.1;0;0.2;0.2;0.1;0;0.1;0.2;0.1;0.1;0.1;0.1
Romania;0;0;0;0;0;0;0;0;0;0;0;0;0;0;0;0;0;0;0;0;0;0;0;0;0;0;0;0;0.1;0.16;0.1;0;0.16;0.16;0.1;0.05;0.05;0.16;0.1;0.15;0.1;0.1
Slovakia;0;0;0;0;0;0;0;0;0;0;0;0;0;0;0;0;0;0;0;0;0;0;0;0;0;0;0;0;0;0.35;0.1;0;0.1;0.19;0.1;0;0;0.19;0.1;0;0.19;0.15
Slovenia;0;0;0;0;0;0;0;0;0;0;0;0;0;0;0;0;0;0;0;0;0;0;0;0;0;0;0;0;0.05;0.15;0.1;0.1;0.15;0.15;0.15;0;0.05;0.15;0.15;0.15;0.1;0.1
Sweden;0;0;0;0;0;0;0;0;0;0;0;0;0;0;0;0;0;0;0;0;0;0;0;0;0;0;0;0;0;0;0;0;0;0;0;0;0;0;0;0;0;0
United States;0;0;0;0;0;0;0;0.1;0.1;0.1;0;0.05;0.3;0.1;0;0;0.1;0;0;0;0.1;0.1;0.1;0;0.1;0;0.05;0;0;0.3;0.1;0;0.3;0.3;0.1;0;0.3;0.3;0.1;0;0.15;0.15
Bermuda;0;0;0;0;0;0;0;0;0;0;0;0;0;0;0;0;0;0;0;0;0;0;0;0;0;0;0;0;0;0;0;0;0;0;0;0;0;0;0;0;0;0
China;0.1;0.1;0.1;0.1;0.1;0.1;0.1;0.1;0.1;0.1;0.1;0.1;0.1;0.1;0.075;0.1;0.1;0.1;0.1;0.1;0.1;0.1;0.1;0.1;0.1;0.1;0.1;0.1;0.1;0.1;0;0.1;0.15;0.07;0.1;0.1;0.07;0.1;0.1;0.1;0.1;0.1
Canada;0.1;0;0;0;0;0;0;0.15;0.1;0.15;0;0;0.1;0;0;0;0.1;0.1;0;0;0.1;0.1;0.1;0;0.1;0.1;0;0;0.1;0.25;0.1;0;0.15;0;0.1;0;0.15;0.25;0.1;0;0.15;0.15
Brazil;0.1;0.1;0.15;0.1;0.1;0.15;0.15;0.1;0.15;0.15;0.15;0.15;0.15;0.15;0.1;0.15;0.15;0.15;0.15;0.1;0.15;0.15;0.15;0.15;0.15;0.1;0.15;0.25;0.15;0.25;0;0.1;0;0.15;0.125;0.15;0.15;0.15;0.15;0.15;0.15;0.15
Hong Kong;0;0;0;0;0;0;0;0;0;0;0;0;0;0;0;0;0;0;0;0;0;0;0;0;0;0;0;0;0;0;0;0;0;0;0;0;0;0;0;0;0;0
Japan;0.1;0;0.1;0.1;0;0.1;0.1;0.1;0.05;0.2;0.1;0.1;0.2;0.2;0.1;0.1;0.2;0.1;0.2;0.1;0.1;0.2;0.2;0.1;0.1;0.1;0.2;0.1;0;0.2;0.1;0.1;0.125;0.1;0.2;0;0.1;0.2;0;0.1;0.1;0.1
Switzerland;0;0;0;0;0;0;0;0;0;0.1;0;0;0.05;0.35;0;0;0;0;0.07;0;0.125;0.1;0.1;0;0;0.05;0;0;0;0.35;0;0.1;0.35;0;0;0.35;0;0;0;0.05;0.1;0.1
Singapore;0;0.1;0.05;0.1;0.1;0;0.08;0;0.1;0.07;0.05;0.05;0.15;0.07;0;0.1;0.1;0.05;0.15;0.05;0.125;0.1;0.1;0.05;0.15;0;0.05;0.1;0.15;0.15;0.07;0.15;0.15;0.15;0.1;0.05;0.15;0.12;0.1;0;0.1;0.1
Liechtenstein;0;0;0;0;0;0;0;0;0;0;0;0;0;0;0;0;0;0;0;0;0;0;0;0;0;0;0;0;0;0;0;0;0;0;0;0;0;0;0;0;0;0
Australia;0.1;0.1;0.1;0.1;0;0.1;0.1;0.1;0.1;0.1;0.1;0.1;0.1;0.1;0.1;0.1;0.1;0;0.1;0.1;0.1;0.1;0.1;0.1;0.1;0.1;0.1;0.1;0.1;0.1;0.1;0.1;0.1;0.1;0;0;0.1;0.1;0.1;0.1;0.1;0.1
South Africa;0.1;0;0;0;0;0;0.1;0.05;0.1;0.1;0;0.05;0;0;0;0;0.15;0;0.08;0;0.1;0.15;0.15;0.1;0.15;0;0.15;0;0;0.15;0.1;0.1;0.1;0.15;0.1;0.05;0;0.15;0.1;0;0.1;0.1
Thailand;0.1;0.1;0.15;0.1;0.03;0.1;0;0.1;0.15;0.15;0.1;0.1;0.15;0.1;0.1;0.1;0.1;0.1;0.15;0.1;0;0.15;0.15;0.1;0.1;0.15;0.1;0.1;0.1;0.15;0.1;0.1;0.15;0.1;0.1;0.1;0.1;0.15;0.1;0.1;0.15;0.1
India;0.1;0.1;0.1;0.1;0.1;0.15;0.1;0.15;0.1;0.1;0.1;0.15;0.2;0.1;0.1;0.1;0.1;0.1;0.2;0.1;0.15;0.1;0.1;0.1;0.2;0.15;0.1;0.1;0.1;0.2;0.1;0.15;0.15;0.2;0.1;0;0.1;0.2;0.15;0.1;0.1;0.2